{
  "data": {
    "channels": [
      {
        "id": {
          "type": "int",
          "label": true
        },
        "returnTransactionsSize": {
          "type": "int",
          "units": "bytes"
        },
        "returnTransactions": {
          "type": "int",
          "units": "transactions"
        },
        "pendingTransactionsSize": {
          "type": "int",
          "units": "bytes"
        },
        "pendingTransactions": {
          "type": "int",
          "units": "transactions"
        },
        "bandwidth": {
          "type": "float",
          "units": "GB/s"
        },
        "ranks": [
          {
            "averageActPrePower": {
              "type": "float",
              "units": "watts"
            },
            "averageBackgroundPower": {
              "type": "float",
              "units": "watts"
            },
            "averageBurstPower": {
              "type": "float",
              "units": "watts"
            },
            "averageRefreshPower": {
              "type": "float",
              "units": "watts"
            },
            "averagePower": {
              "type": "float",
              "units": "watts"
            },
            "writes": "int",
            "writesSize": {
              "type": "int",
              "units": "bytes"
            },
            "reads": "int",
            "readsSize": {
              "type": "int",
              "units": "bytes"
            },
            "latency": [
              {
                "max": "int",
                "amount": "int",
                "min": "int"
              }
            ],
            "banks": [
              {
                "latency": {
                  "type": "float",
                  "units": "nanoseconds"
                },
                "bandwidth": {
                  "type": "float",
                  "units": "GB/s"
                },
                "id": {
                  "type": "int",
                  "label": true
                }
              }
            ]
          }
        ]
      }
    ]
  }
}
